<?xml version="1.0" encoding="utf-8"?>
<!-- Generator: Adobe Illustrator 18.1.1, SVG Export Plug-In . SVG Version: 6.00 Build 0)  -->
<svg version="1.1" xmlns="http://www.w3.org/2000/svg" xmlns:xlink="http://www.w3.org/1999/xlink" x="0px" y="0px"
	 viewBox="0 0 2000 612" enable-background="new 0 0 2000 612" xml:space="preserve">
<g id="Layer_1">
	<linearGradient id="SVGID_1_" gradientUnits="userSpaceOnUse" x1="1000" y1="256.7695" x2="1000" y2="8.0002">
		<stop  offset="0" style="stop-color:#D3E5E0"/>
		<stop  offset="1" style="stop-color:#B7D9D1"/>
	</linearGradient>
	<polygon fill="url(#SVGID_1_)" points="2000,288.7 0,289 0,0 2000,0 	"/>
	<g>
		<g id="XMLID_5_">
			<g>
				<g id="XMLID_6_">
					<g>
						<path fill="#FFFFFF" d="M1085,349.9c0-2.8-2.3-5-5-5c-2.8,0-5,2.3-5,5c0,2.8,2.3,5,5,5C1082.7,355,1085,352.7,1085,349.9z"/>
					</g>
				</g>
			</g>
		</g>
	</g>
	<path fill="#FFFFFF" d="M875.9,172.2c-3,0-5.7,1.3-7.7,3.3c-1.7-3-4.9-4.9-8.6-4.9c-4.3,0-7.9,2.7-9.3,6.5
		c-1.2-0.8-2.7-1.2-4.2-1.2c-2.2,0-4.1,0.9-5.5,2.2c-1.4-1.4-3.4-2.2-5.5-2.2c-0.3,0-0.5,0-0.7,0c0-0.3,0-0.7,0-1
		c0-5.9-4.8-10.6-10.6-10.6c-5.7,0-10.4,4.5-10.6,10.2c-1.2-0.7-2.6-1.2-4.2-1.2c-1.1,0-2.1,0.2-3,0.6c-0.1,0-0.1-0.1-0.2-0.1
		c-1.2-3-4.1-5.1-7.5-5.1c-4.4,0-8,3.6-8,8c0,0.3,0,0.6,0.1,0.9c0,0-0.1,0-0.1,0c-4.4,0-8,3.6-8,8c0,4.3,3.4,7.8,7.7,8v0h86.1
		c5.9,0,10.6-4.8,10.6-10.6C886.5,177,881.8,172.2,875.9,172.2z"/>
	<path fill="#FFFFFF" d="M1654.2,207.2c-3,0-5.7,1.3-7.7,3.3c-1.7-3-4.9-4.9-8.6-4.9c-4.3,0-7.9,2.7-9.3,6.5
		c-1.2-0.8-2.7-1.2-4.2-1.2c-2.2,0-4.1,0.9-5.5,2.2c-1.4-1.4-3.4-2.2-5.5-2.2c-0.3,0-0.5,0-0.7,0c0-0.3,0-0.7,0-1
		c0-5.9-4.8-10.6-10.6-10.6c-5.7,0-10.4,4.5-10.6,10.2c-1.2-0.7-2.6-1.2-4.2-1.2c-1.1,0-2.1,0.2-3,0.6c-0.1,0-0.1-0.1-0.2-0.1
		c-1.2-3-4.1-5.1-7.5-5.1c-4.4,0-8,3.6-8,8c0,0.3,0,0.6,0.1,0.9c0,0-0.1,0-0.1,0c-4.4,0-8,3.6-8,8c0,4.3,3.4,7.8,7.7,8v0h86.1
		c5.9,0,10.6-4.8,10.6-10.6C1664.9,212,1660.1,207.2,1654.2,207.2z"/>
	<path fill="#FFFFFF" d="M1982.8,175.1c-4.9,0-9.3,2-12.5,5.3c-2.8-4.8-8-8-14-8c-6.9,0-12.9,4.4-15.1,10.5c-2-1.2-4.3-1.9-6.8-1.9
		c-3.5,0-6.7,1.4-9,3.6c-2.3-2.3-5.5-3.6-9-3.6c-0.4,0-0.8,0-1.2,0.1c0.1-0.5,0.1-1.1,0.1-1.6c0-9.6-7.8-17.3-17.3-17.3
		c-9.3,0-16.9,7.4-17.3,16.6c-2-1.2-4.3-1.9-6.8-1.9c-1.7,0-3.4,0.3-4.9,1c-0.1-0.1-0.2-0.1-0.3-0.2c-1.9-4.9-6.6-8.3-12.1-8.3
		c-7.2,0-13,5.8-13,13c0,0.5,0,1,0.1,1.5c-0.1,0-0.1,0-0.2,0c-7.2,0-13,5.8-13,13c0,7,5.5,12.7,12.5,13v0h140
		c9.6,0,17.3-7.8,17.3-17.3C2000.1,182.9,1992.4,175.1,1982.8,175.1z"/>
	<path fill="#FFFFFF" d="M1158.2,200.7c0.3-0.5,0.4-1,0.4-1.5c0-1.7-1.4-3.1-3.1-3.1c-0.3,0-0.5,0-0.8,0.1c-0.7-4.3-4.5-7.5-9-7.5
		c-3.6,0-6.7,2.1-8.2,5.1c-0.5-0.2-1.2-0.4-1.8-0.4c-1.1,0-2.1,0.4-2.8,1.1c-0.5-1.8-2.2-3.1-4.2-3.1c-1.4,0-2.7,0.7-3.5,1.8
		c-1.5-1.4-3.7-2.3-6-2.3c-2.9,0-5.5,1.3-7,3.4c-0.7-0.5-1.6-0.8-2.5-0.8c-2.3,0-4.3,1.9-4.4,4.2c-0.8-0.8-1.9-1.3-3.1-1.3
		c-1.2,0-2.3,0.5-3.1,1.3c-0.6-1.9-2.4-3.3-4.5-3.3c-2.6,0-4.7,2.1-4.7,4.7c0,0.6,0.1,1.1,0.3,1.6c-1.7,0-3,1.4-3,3.1
		c0,1.7,1.4,3.1,3.1,3.1c0.1,0,66.8,0,67.2,0c1.7,0,3.1-1.4,3.1-3.1C1160.7,202.3,1159.6,201,1158.2,200.7z"/>
	<path fill="#FFFFFF" d="M410.2,207.3c0.3-0.5,0.4-1,0.4-1.5c0-1.7-1.4-3.1-3.1-3.1c-0.3,0-0.5,0-0.8,0.1c-0.7-4.3-4.5-7.5-9-7.5
		c-3.6,0-6.7,2.1-8.2,5.1c-0.5-0.2-1.2-0.4-1.8-0.4c-1.1,0-2.1,0.4-2.8,1.1c-0.5-1.8-2.2-3.1-4.2-3.1c-1.4,0-2.7,0.7-3.5,1.8
		c-1.5-1.4-3.7-2.3-6-2.3c-2.9,0-5.5,1.3-7,3.4c-0.7-0.5-1.6-0.8-2.5-0.8c-2.3,0-4.3,1.9-4.4,4.2c-0.8-0.8-1.9-1.3-3.1-1.3
		c-1.2,0-2.3,0.5-3.1,1.3c-0.6-1.9-2.4-3.3-4.5-3.3c-2.6,0-4.7,2.1-4.7,4.7c0,0.6,0.1,1.1,0.3,1.6c-1.7,0-3,1.4-3,3.1
		c0,1.7,1.4,3.1,3.1,3.1c0.1,0,66.8,0,67.2,0c1.7,0,3.1-1.4,3.1-3.1C412.7,208.8,411.7,207.6,410.2,207.3z"/>
	<g>
		<defs>
			<rect id="SVGID_19_" x="613.9" y="192.6" width="731.9" height="96.5"/>
		</defs>
		<clipPath id="SVGID_3_">
			<use xlink:href="#SVGID_19_"  overflow="visible"/>
		</clipPath>
		<path clip-path="url(#SVGID_3_)" fill-rule="evenodd" clip-rule="evenodd" fill="#009C82" d="M685.2,290.8c0,0,81.2-47,143.4-47
			s220,49.1,220,49.1L685.2,290.8z"/>
		<path clip-path="url(#SVGID_3_)" fill-rule="evenodd" clip-rule="evenodd" fill="#076E60" d="M894.1,295.6
			c0,0,127.6-31.1,202.3-30c74.7,1.2,159.4,24.5,159.4,24.5L894.1,295.6z"/>
	</g>
	<g>
		<defs>
			<rect id="SVGID_21_" x="1138.9" y="192.6" width="731.9" height="96.5"/>
		</defs>
		<clipPath id="SVGID_5_">
			<use xlink:href="#SVGID_21_"  overflow="visible"/>
		</clipPath>
		<path clip-path="url(#SVGID_5_)" fill-rule="evenodd" clip-rule="evenodd" fill="#009C82" d="M1210.2,290.8c0,0,81.2-47,143.4-47
			s220,49.1,220,49.1L1210.2,290.8z"/>
		<path clip-path="url(#SVGID_5_)" fill-rule="evenodd" clip-rule="evenodd" fill="#076E60" d="M1419.1,295.6
			c0,0,127.6-31.1,202.3-30c74.7,1.2,159.4,24.5,159.4,24.5L1419.1,295.6z"/>
	</g>
	<g>
		<defs>
			<rect id="SVGID_23_" x="1555.2" y="192.6" width="444.8" height="96.5"/>
		</defs>
		<clipPath id="SVGID_7_">
			<use xlink:href="#SVGID_23_"  overflow="visible"/>
		</clipPath>
		<path clip-path="url(#SVGID_7_)" fill-rule="evenodd" clip-rule="evenodd" fill="#009C82" d="M1649.6,290.8c0,0,107.5-47,189.7-47
			s291.1,49.1,291.1,49.1L1649.6,290.8z"/>
	</g>
	<g>
		<defs>
			<rect id="SVGID_25_" x="2.3" y="192.6" width="831.6" height="96.5"/>
		</defs>
		<clipPath id="SVGID_8_">
			<use xlink:href="#SVGID_25_"  overflow="visible"/>
		</clipPath>
		<path clip-path="url(#SVGID_8_)" fill-rule="evenodd" clip-rule="evenodd" fill="#009C82" d="M-32.9,290.8c0,0,106.5-47,188.1-47
			s288.6,49.1,288.6,49.1L-32.9,290.8z"/>
	</g>
	<g>
		<defs>
			<rect id="SVGID_27_" x="217.2" y="192.6" width="968.6" height="96.5"/>
		</defs>
		<clipPath id="SVGID_10_">
			<use xlink:href="#SVGID_27_"  overflow="visible"/>
		</clipPath>
		<path clip-path="url(#SVGID_10_)" fill-rule="evenodd" clip-rule="evenodd" fill="#009C82" d="M311.6,290.8c0,0,107.5-47,189.7-47
			s291.1,49.1,291.1,49.1L311.6,290.8z"/>
	</g>
	<rect x="777" y="257" fill-rule="evenodd" clip-rule="evenodd" fill="#7A5159" width="5" height="23"/>
	<rect x="774" y="257" fill-rule="evenodd" clip-rule="evenodd" fill="#806859" width="5" height="23"/>
	<path fill-rule="evenodd" clip-rule="evenodd" fill="#72B769" d="M790.2,231.6c13.5,17.8-6.6,37.8-24.3,24.3
		C752.4,238.2,772.5,218.1,790.2,231.6z"/>
	<path fill-rule="evenodd" clip-rule="evenodd" fill="#629D6A" d="M778.8,227.2c6.3,2.3,10.9,8.4,10.9,15.6
		c0,9.2-7.4,16.6-16.6,16.6c-0.2,0-0.5,0-0.7,0c5.3,2,11.9,1.4,18.5-4.2c0,0,0,0,0,0C800.1,241.9,791.2,227.8,778.8,227.2z"/>
	<g>
		<rect x="1187.5" y="264.6" fill-rule="evenodd" clip-rule="evenodd" fill="#7A5159" width="2.9" height="13.4"/>
		<rect x="1185.8" y="264.6" fill-rule="evenodd" clip-rule="evenodd" fill="#806859" width="2.9" height="13.4"/>
		<path fill-rule="evenodd" clip-rule="evenodd" fill="#72B769" d="M1195.3,249.8c7.9,10.4-3.8,22.1-14.2,14.2
			C1173.2,253.6,1184.9,241.9,1195.3,249.8z"/>
		<path fill-rule="evenodd" clip-rule="evenodd" fill="#629D6A" d="M1188.6,247.2c3.7,1.4,6.3,4.9,6.3,9.1c0,5.3-4.3,9.7-9.7,9.7
			c-0.1,0-0.3,0-0.4,0c3.1,1.1,6.9,0.8,10.8-2.4c0,0,0,0,0,0C1201,255.8,1195.8,247.5,1188.6,247.2z"/>
	</g>
	<g>
		<rect x="1448.3" y="252.7" fill-rule="evenodd" clip-rule="evenodd" fill="#7A5159" width="2.9" height="13.4"/>
		<rect x="1446.6" y="252.7" fill-rule="evenodd" clip-rule="evenodd" fill="#806859" width="2.9" height="13.4"/>
		<path fill-rule="evenodd" clip-rule="evenodd" fill="#72B769" d="M1456.1,237.9c7.9,10.4-3.8,22.1-14.2,14.2
			C1434,241.7,1445.7,230,1456.1,237.9z"/>
		<path fill-rule="evenodd" clip-rule="evenodd" fill="#629D6A" d="M1449.4,235.3c3.7,1.4,6.3,4.9,6.3,9.1c0,5.3-4.3,9.7-9.7,9.7
			c-0.1,0-0.3,0-0.4,0c3.1,1.1,6.9,0.8,10.8-2.4c0,0,0,0,0,0C1461.8,243.9,1456.6,235.7,1449.4,235.3z"/>
	</g>
	<g>
		<rect x="1778.3" y="252.7" fill-rule="evenodd" clip-rule="evenodd" fill="#7A5159" width="2.9" height="13.4"/>
		<rect x="1776.6" y="252.7" fill-rule="evenodd" clip-rule="evenodd" fill="#806859" width="2.9" height="13.4"/>
		<path fill-rule="evenodd" clip-rule="evenodd" fill="#72B769" d="M1786.1,237.9c7.9,10.4-3.8,22.1-14.2,14.2
			C1764,241.7,1775.7,230,1786.1,237.9z"/>
		<path fill-rule="evenodd" clip-rule="evenodd" fill="#629D6A" d="M1779.4,235.3c3.7,1.4,6.3,4.9,6.3,9.1c0,5.3-4.3,9.7-9.7,9.7
			c-0.1,0-0.3,0-0.4,0c3.1,1.1,6.9,0.8,10.8-2.4c0,0,0,0,0,0C1791.8,243.9,1786.6,235.7,1779.4,235.3z"/>
	</g>
	<g>
		<rect x="817.6" y="252" fill-rule="evenodd" clip-rule="evenodd" fill="#7A5159" width="2.9" height="13.4"/>
		<rect x="815.8" y="252" fill-rule="evenodd" clip-rule="evenodd" fill="#806859" width="2.9" height="13.4"/>
		<path fill-rule="evenodd" clip-rule="evenodd" fill="#72B769" d="M825.3,237.2c7.9,10.4-3.8,22.1-14.2,14.2
			C803.2,241,814.9,229.3,825.3,237.2z"/>
		<path fill-rule="evenodd" clip-rule="evenodd" fill="#629D6A" d="M818.6,234.6c3.7,1.4,6.3,4.9,6.3,9.1c0,5.3-4.3,9.7-9.7,9.7
			c-0.1,0-0.3,0-0.4,0c3.1,1.1,6.9,0.8,10.8-2.4c0,0,0,0,0,0C831.1,243.2,825.9,234.9,818.6,234.6z"/>
	</g>
	<g>
		<rect x="883.9" y="264.4" fill-rule="evenodd" clip-rule="evenodd" fill="#7A5159" width="2.9" height="13.4"/>
		<rect x="882.2" y="264.4" fill-rule="evenodd" clip-rule="evenodd" fill="#806859" width="2.9" height="13.4"/>
		<path fill-rule="evenodd" clip-rule="evenodd" fill="#72B769" d="M891.7,249.6c7.9,10.4-3.8,22.1-14.2,14.2
			C869.6,253.4,881.3,241.7,891.7,249.6z"/>
		<path fill-rule="evenodd" clip-rule="evenodd" fill="#629D6A" d="M885,247c3.7,1.4,6.3,4.9,6.3,9.1c0,5.3-4.3,9.7-9.7,9.7
			c-0.1,0-0.3,0-0.4,0c3.1,1.1,6.9,0.8,10.8-2.4c0,0,0,0,0,0C897.4,255.6,892.2,247.3,885,247z"/>
	</g>
	<path fill="#696A6D" d="M1058.7,272.6l0-0.2l1.5-15.8l10.3-3.8h5.6c0,0,0.7-5.7,2.4-7.2c1.7-1.5,5.3-2.4,6.2-2.7
		c0.8-0.4,1.2-2.4,1.2-2.4s-0.5-5.1-1.1-7c-0.6-1.9-1.8-4.4-1.8-6.3c0-1.9-0.6-3.6-0.7-4.9c-0.1-1.3-0.4-3.8-0.4-4.4
		c0-0.6,0.6-1.8,0.9-2.4c0.4-0.6,0.4-1.2-0.5-1.7c-0.8-0.5-1.1-2-1.1-2.4c0-0.4-0.7-0.7-1.4-1.8c-0.7-1.1-0.4-1.4-0.9-1.9
		c-0.6-0.5-0.8,0.6-1.2-0.9s-0.5-0.4-0.4-2.3c0.1-1.9,0.1-2.7,0.1-2.7s-5.8-1.9-7-1.9s-4-2-4.4-2.4c-0.4-0.4-1.5-1.3-1.7-1.7
		c-0.1-0.4,0.2-0.9-0.2-1.2c-0.5-0.2-1.1-0.4-0.8-1.1c0.2-0.7,0.6-1.1,1.2-0.7c0.6,0.4,1.5,2.3,2,2.5c0.5,0.2,5.3,2.7,6,2.7
		c0.7,0,2.4,0,2.4,0s-0.7-1.1,0-1.8c0.7-0.7,1.2-1.5,1.2-1.5s-0.5-1.7,0.8-1.7c1.3,0,1.5,1.1,1.5,1.1s1.7,0.8,1.7,1.5
		s0.4,1.5,0.4,1.5s1.1-0.1,1.4-0.9c0.4-0.8,0.1-1.9,0.1-1.9s-1.5-0.4-1.2-2c0.4-1.7,1.2-3.1,3-5c1.8-1.9,5.2-5.5,5.2-5.5
		s1.2-0.8,1.9-0.5c0.7,0.4,1.3-0.1,1.2,0.8s0,1.4,0,1.9c0,0.5,0.6,1.5,0.6,2.1c0,0.6-0.1,2-0.1,2l0.7,1.3c0,0,6.2-3.2,7.5-3.6
		c1.3-0.4,3-1.1,3-0.7c0,0.4-0.2,1.2-1.1,1.5c-0.8,0.4-0.9,2.1-1.3,2.7c-0.4,0.6-0.4,1.9-0.9,2.6c-0.6,0.7-0.9-0.5-1.1,1.5
		c-0.1,2,0.2,1.2-0.1,2s-0.7,1.1-0.8,1.7c-0.1,0.6,0.2,1.5-0.4,1.8s-1.1,0.8-1.1,1.4c0,0.6,0.4,2.1,0.4,2.1s1.4,0.4,0,1.5
		s-1.1,0.6-1.3,1.7s0.6,1.1-0.1,1.5c-0.7,0.5-0.8,0.7-1.4,0.9s-1.8,0.4-1.8,0.4s-0.9,0.7-0.5,1.4c0.5,0.7,0.9,0.9,0.9,1.4
		c0,0.5-0.9,0.4-0.5,1.2c0.5,0.8,7.5,7.1,7.5,7.1s1.2,0.7,1.2,1.8s0.1,3,0.1,3s0.8-0.5,0.7,0.6s-0.8,2.8-0.8,2.8s1.2-0.1,1.5,0.6
		c0.4,0.7,0.6,1.5,0.6,2.1c0,0.6,0.5,2.3,0.2,3c-0.2,0.7-1.7,1.1-1.5,0.8s-0.7-2.7-1.2-3.2c-0.5-0.5-0.2-1.3-0.9-1.4
		c-0.7-0.1-1.3-0.9-1.7,0c-0.4,0.9-0.8,1.9-1.1,3.1s-2.5,2.6-3.1,3c-0.6,0.4-2.3-0.2-3.4-0.1s-3.4-0.2-3.2,1.1
		c0.2,1.3,1.7,1.5,1.1,1.9c-0.6,0.4-0.6,2.3-0.6,2.3s5.1,0.2,6.6,2.1c1.5,1.9,3.4,2.4,3.1,3.9c-0.4,1.5,0.4,5.5,0.4,5.5h9.7v1.5
		l9.4,1.7v33H1058L1058.7,272.6z"/>
	<path fill="#FFFFFF" d="M1155.6,280.1c-1.5-7.9-8.4-13.9-16.7-13.9c-9.3,0-16.9,7.5-17,16.8c-0.5-0.1-1-0.2-1.5-0.2
		c-1.7,0-3.3,0.6-4.5,1.7c-0.5-4.1-4.1-7.3-8.3-7.3c-0.6,0-1.3,0.1-1.9,0.2c-2.3-6.7-8.6-11.6-16.1-11.6c-8.5,0-15.5,6.2-16.8,14.3
		c-0.1,0-0.2,0-0.2,0c-6.3,0-11.3,5.1-11.3,11.3c0,6.3,5.1,11.3,11.3,11.3v0.1h81.9v-0.1c6.3,0,11.3-5.1,11.3-11.3
		C1165.8,285.5,1161.3,280.6,1155.6,280.1z M1113.7,291.3L1113.7,291.3C1113.7,291.3,1113.7,291.3,1113.7,291.3
		C1113.7,291.3,1113.7,291.3,1113.7,291.3z"/>
	<path fill="#FFFFFF" d="M293.2,171.5c-2.1-11.5-12.2-20.2-24.3-20.2c-13.5,0-24.5,10.9-24.7,24.4c-0.7-0.2-1.5-0.3-2.2-0.3
		c-2.5,0-4.7,0.9-6.5,2.4c-0.8-6-5.9-10.6-12.1-10.6c-0.9,0-1.8,0.1-2.7,0.3c-3.3-9.8-12.5-16.8-23.4-16.8c-12.3,0-22.4,9-24.4,20.7
		c-0.1,0-0.2,0-0.3,0c-9.1,0-16.4,7.4-16.4,16.4c0,9.1,7.4,16.4,16.4,16.4v0.1h118.9v-0.1c9.1,0,16.4-7.4,16.4-16.4
		C307.9,179.4,301.5,172.4,293.2,171.5z M232.4,187.8L232.4,187.8C232.3,187.8,232.3,187.8,232.4,187.8
		C232.4,187.8,232.4,187.8,232.4,187.8z"/>
	<g>
		<defs>
			<rect id="SVGID_29_" x="0.6" y="192.6" width="583.2" height="96.5"/>
		</defs>
		<clipPath id="SVGID_12_">
			<use xlink:href="#SVGID_29_"  overflow="visible"/>
		</clipPath>
		<path clip-path="url(#SVGID_12_)" fill-rule="evenodd" clip-rule="evenodd" fill="#009C82" d="M57.4,290.8c0,0,64.7-47,114.2-47
			S347,292.8,347,292.8L57.4,290.8z"/>
		<path clip-path="url(#SVGID_12_)" fill-rule="evenodd" clip-rule="evenodd" fill="#076E60" d="M223.9,295.6
			c0,0,101.7-31.1,161.2-30c59.5,1.2,127,24.5,127,24.5L223.9,295.6z"/>
	</g>
	<rect x="516.9" y="257.2" fill-rule="evenodd" clip-rule="evenodd" fill="#7A5159" width="5" height="23"/>
	<rect x="513.9" y="257.2" fill-rule="evenodd" clip-rule="evenodd" fill="#806859" width="5" height="23"/>
	<path fill-rule="evenodd" clip-rule="evenodd" fill="#72B769" d="M530.1,231.9c13.5,17.8-6.6,37.8-24.3,24.3
		C492.3,238.4,512.4,218.3,530.1,231.9z"/>
	<path fill-rule="evenodd" clip-rule="evenodd" fill="#629D6A" d="M518.7,227.4c6.3,2.3,10.9,8.4,10.9,15.6
		c0,9.2-7.4,16.6-16.6,16.6c-0.2,0-0.5,0-0.7,0c5.3,2,11.9,1.4,18.5-4.2c0,0,0,0,0,0C540,242.1,531.1,228,518.7,227.4z"/>
	<rect x="1878.5" y="253.9" fill-rule="evenodd" clip-rule="evenodd" fill="#7A5159" width="5" height="23"/>
	<rect x="1875.5" y="253.9" fill-rule="evenodd" clip-rule="evenodd" fill="#806859" width="5" height="23"/>
	<path fill-rule="evenodd" clip-rule="evenodd" fill="#72B769" d="M1891.8,228.5c13.5,17.8-6.6,37.8-24.3,24.3
		C1853.9,235.1,1874,215,1891.8,228.5z"/>
	<path fill-rule="evenodd" clip-rule="evenodd" fill="#629D6A" d="M1880.4,224.1c6.3,2.3,10.9,8.4,10.9,15.6
		c0,9.2-7.4,16.6-16.6,16.6c-0.2,0-0.5,0-0.7,0c5.3,2,11.9,1.4,18.5-4.2c0,0,0,0,0,0C1901.7,238.8,1892.8,224.6,1880.4,224.1z"/>
	<rect x="1836.9" y="252.2" fill-rule="evenodd" clip-rule="evenodd" fill="#7A5159" width="5" height="23"/>
	<rect x="1833.9" y="252.2" fill-rule="evenodd" clip-rule="evenodd" fill="#806859" width="5" height="23"/>
	<path fill-rule="evenodd" clip-rule="evenodd" fill="#72B769" d="M1850.1,226.9c13.5,17.8-6.6,37.8-24.3,24.3
		C1812.3,233.4,1832.4,213.3,1850.1,226.9z"/>
	<path fill-rule="evenodd" clip-rule="evenodd" fill="#629D6A" d="M1838.7,222.4c6.3,2.3,10.9,8.4,10.9,15.6
		c0,9.2-7.4,16.6-16.6,16.6c-0.2,0-0.5,0-0.7,0c5.3,2,11.9,1.4,18.5-4.2c0,0,0,0,0,0C1860,237.1,1851.1,223,1838.7,222.4z"/>
</g>
<g id="Layer_2">
</g>
</svg>
